Danl_310_HW2_Starkey_Jake.qmd – Jake Starkey
…
Q3b.

Calculate a mean caffeine_mgml and a mean calories_kcml for each product name

product_means <- starbucks %>%
  group_by(product_name) %>%
  summarize(
    mean_caffeine_mgml = mean(caffeine_mgml, na.rm = TRUE),
    mean_calories_kcml = mean(calories_kcml, na.rm = TRUE)
  )

print(product_means)

# A tibble: 87 × 3
   product_name                      mean_caffeine_mgml mean_calories_kcml
   <chr>                                          <dbl>              <dbl>
 1 Blended Strawberry Lemonade                    0                  0.423
 2 Caffè Latte                                    0.261              0.360
 3 Caffè Misto                                    0.322              0.197
 4 Caffè Mocha                                    0.333              0.673
 5 Caffè Vanilla Frappuccino Blended              0.187              0.692
 6 Caffè Vanilla Frappuccino Light                0.187              0.383
 7 Cappuccino                                     0.275              0.256
 8 Caramel Apple Spice                            0                  0.711
 9 Caramel Frappuccino Blended                    0.198              0.656
10 Caramel Frappuccino Light                      0.181              0.294
# ℹ 77 more rows
…
