Jake Starkey - NFL 2022
…
Comment: Patrick Mahomes generally had a higher mean value of epa. However, there were a few weeks that Josh Allen had a higher mean value of epa.

Q2f 🏈

Calculate the difference between the mean value of epa for “J.Allen” the mean value of epa for “P.Mahomes” for each value of week.

difference_epa <- mean_epa_data %>% 
  pivot_wider(names_from = passer, values_from = mean_epa)

difference_epa$epa_differnce <- difference_epa$'J.Allen' - difference_epa$'P.Mahomes'

print(difference_epa)

# A tibble: 22 × 4
# Groups:   week [22]
    week J.Allen P.Mahomes epa_differnce
   <int>   <dbl>     <dbl>         <dbl>
 1     1   0.530    0.698        -0.169 
 2     2   0.487    0.148         0.339 
 3     3   0.169    0.246        -0.0763
 4     4   0.191    0.271        -0.0803
 5     5   0.627    0.302         0.325 
 6     6   0.307    0.133         0.173 
 7     7  NA        0.701        NA     
 8     8   0.224   NA            NA     
 9     9  -0.208    0.0965       -0.304 
10    10   0.161    0.589        -0.429 
# ℹ 12 more rows
…
